{"failedCount":1,"prefixedPath":"src\/test\/java\/Basics\/Test.feature","packageQualifiedName":"src.test.java.Basics.Test","loopIndex":-1,"relativePath":"src\/test\/java\/Basics\/Test.feature","scenarioResults":[{"sectionIndex":0,"stepResults":[{"result":{"nanos":824984,"millis":0.824984,"status":"passed"},"step":{"line":3,"prefix":"Given","index":0,"text":"url \"https:\/\/reqres.in\/api\/users\""},"stepLog":"13:41:42.164 Tests will be executed in dev environment \n"},{"result":{"nanos":370835493,"millis":370.835493,"status":"passed"},"step":{"line":4,"prefix":"When","index":1,"text":"method GET"},"stepLog":"13:41:42.358 request:\n1 > GET https:\/\/reqres.in\/api\/users\n1 > Host: reqres.in\n1 > Connection: Keep-Alive\n1 > User-Agent: Apache-HttpClient\/4.5.13 (Java\/11.0.17)\n1 > Accept-Encoding: gzip,deflate\n\n\n13:41:42.540 response time in milliseconds: 180\n1 < 200\n1 < Date: Wed, 30 Nov 2022 08:11:42 GMT\n1 < Content-Type: application\/json; charset=utf-8\n1 < Transfer-Encoding: chunked\n1 < Connection: keep-alive\n1 < X-Powered-By: Express\n1 < Access-Control-Allow-Origin: *\n1 < Etag: W\/\"3e4-2RLXvr5wTg9YQ6aH95CkYoFNuO8\"\n1 < Via: 1.1 vegur\n1 < Cache-Control: max-age=14400\n1 < CF-Cache-Status: HIT\n1 < Age: 1508\n1 < Report-To: {\"endpoints\":[{\"url\":\"https:\\\/\\\/a.nel.cloudflare.com\\\/report\\\/v3?s=NERMP8JjbYb6Rjkyi7wdEN3jJ3HDJqejXNClirgdJoNYYepUhwlbu4lvI8AgrlibKjwF542vLCmj81GTEUbwtfXctcX4ouQPU%2Bz52AEnKCykzphXxnRnLIRiNg%3D%3D\"}],\"group\":\"cf-nel\",\"max_age\":604800}\n1 < NEL: {\"success_fraction\":0,\"report_to\":\"cf-nel\",\"max_age\":604800}\n1 < Vary: Accept-Encoding\n1 < Server: cloudflare\n1 < CF-RAY: 77221d287def1bcb-BOM\n{\"page\":1,\"per_page\":6,\"total\":12,\"total_pages\":2,\"data\":[{\"id\":1,\"email\":\"george.bluth@reqres.in\",\"first_name\":\"George\",\"last_name\":\"Bluth\",\"avatar\":\"https:\/\/reqres.in\/img\/faces\/1-image.jpg\"},{\"id\":2,\"email\":\"janet.weaver@reqres.in\",\"first_name\":\"Janet\",\"last_name\":\"Weaver\",\"avatar\":\"https:\/\/reqres.in\/img\/faces\/2-image.jpg\"},{\"id\":3,\"email\":\"emma.wong@reqres.in\",\"first_name\":\"Emma\",\"last_name\":\"Wong\",\"avatar\":\"https:\/\/reqres.in\/img\/faces\/3-image.jpg\"},{\"id\":4,\"email\":\"eve.holt@reqres.in\",\"first_name\":\"Eve\",\"last_name\":\"Holt\",\"avatar\":\"https:\/\/reqres.in\/img\/faces\/4-image.jpg\"},{\"id\":5,\"email\":\"charles.morris@reqres.in\",\"first_name\":\"Charles\",\"last_name\":\"Morris\",\"avatar\":\"https:\/\/reqres.in\/img\/faces\/5-image.jpg\"},{\"id\":6,\"email\":\"tracey.ramos@reqres.in\",\"first_name\":\"Tracey\",\"last_name\":\"Ramos\",\"avatar\":\"https:\/\/reqres.in\/img\/faces\/6-image.jpg\"}],\"support\":{\"url\":\"https:\/\/reqres.in\/#support-heading\",\"text\":\"To keep ReqRes free, contributions towards server costs are appreciated!\"}}\n\n"},{"result":{"nanos":17993,"millis":0.017993,"status":"passed"},"step":{"line":5,"prefix":"Then","index":2,"text":"status 200"}},{"result":{"nanos":5300051,"millis":5.300051,"status":"passed"},"step":{"line":6,"prefix":"And","index":3,"text":"print response.data[0].email"},"stepLog":"13:41:42.564 [print] george.bluth@reqres.in \n"},{"result":{"nanos":693298,"errorMessage":"did not evaluate to 'true': response.data[0].email == \"michael.lawson@reqres.in\"\nsrc\/test\/java\/Basics\/Test.feature:7","millis":0.693298,"status":"failed"},"step":{"line":7,"prefix":"And","index":4,"text":"assert response.data[0].email == \"michael.lawson@reqres.in\""},"stepLog":"13:41:42.565 src\/test\/java\/Basics\/Test.feature:7\nAnd assert response.data[0].email == \"michael.lawson@reqres.in\"\ndid not evaluate to 'true': response.data[0].email == \"michael.lawson@reqres.in\"\nsrc\/test\/java\/Basics\/Test.feature:7\n"}],"line":2,"description":"","durationMillis":377.671819,"failed":true,"error":"did not evaluate to 'true': response.data[0].email == \"michael.lawson@reqres.in\"\nsrc\/test\/java\/Basics\/Test.feature:7","executorName":"main","name":"test API","startTime":1669795902040,"refId":"[1:2]","endTime":1669795902565,"exampleIndex":-1}],"callDepth":0,"name":"Test API","description":"","resultDate":"2022-11-30 01:41:42 PM","durationMillis":377.671819,"passedCount":0}