{"failedCount":0,"prefixedPath":"src\/test\/java\/Basics\/Test.feature","packageQualifiedName":"src.test.java.Basics.Test","loopIndex":-1,"relativePath":"src\/test\/java\/Basics\/Test.feature","scenarioResults":[{"sectionIndex":0,"stepResults":[{"result":{"nanos":840510,"millis":0.84051,"status":"passed"},"step":{"line":3,"prefix":"Given","index":0,"text":"url \"https:\/\/reqres.in\/api\/users?page=2\""},"stepLog":"13:42:04.670 Tests will be executed in dev environment \n"},{"result":{"nanos":353910787,"millis":353.910787,"status":"passed"},"step":{"line":4,"prefix":"When","index":1,"text":"method GET"},"stepLog":"13:42:04.867 request:\n1 > GET https:\/\/reqres.in\/api\/users?page=2\n1 > Host: reqres.in\n1 > Connection: Keep-Alive\n1 > User-Agent: Apache-HttpClient\/4.5.13 (Java\/11.0.17)\n1 > Accept-Encoding: gzip,deflate\n\n\n13:42:05.033 response time in milliseconds: 164\n1 < 200\n1 < Date: Wed, 30 Nov 2022 08:12:05 GMT\n1 < Content-Type: application\/json; charset=utf-8\n1 < Transfer-Encoding: chunked\n1 < Connection: keep-alive\n1 < X-Powered-By: Express\n1 < Access-Control-Allow-Origin: *\n1 < Etag: W\/\"406-ut0vzoCuidvyMf8arZpMpJ6ZRDw\"\n1 < Via: 1.1 vegur\n1 < Cache-Control: max-age=14400\n1 < CF-Cache-Status: HIT\n1 < Age: 1864\n1 < Report-To: {\"endpoints\":[{\"url\":\"https:\\\/\\\/a.nel.cloudflare.com\\\/report\\\/v3?s=7PXsMbn7VmNZohNmmUaJE77HpQLId0qB9VlAF1pRx0gAAMsnRW0WQF715LCbuKHm8pYGd%2Fs6jyqgFZrOMdUUsKFfEpnxVxZlT3mWPBp9eMQVDhFKmlDToxt6vw%3D%3D\"}],\"group\":\"cf-nel\",\"max_age\":604800}\n1 < NEL: {\"success_fraction\":0,\"report_to\":\"cf-nel\",\"max_age\":604800}\n1 < Vary: Accept-Encoding\n1 < Server: cloudflare\n1 < CF-RAY: 77221db50adf6ec2-BOM\n{\"page\":2,\"per_page\":6,\"total\":12,\"total_pages\":2,\"data\":[{\"id\":7,\"email\":\"michael.lawson@reqres.in\",\"first_name\":\"Michael\",\"last_name\":\"Lawson\",\"avatar\":\"https:\/\/reqres.in\/img\/faces\/7-image.jpg\"},{\"id\":8,\"email\":\"lindsay.ferguson@reqres.in\",\"first_name\":\"Lindsay\",\"last_name\":\"Ferguson\",\"avatar\":\"https:\/\/reqres.in\/img\/faces\/8-image.jpg\"},{\"id\":9,\"email\":\"tobias.funke@reqres.in\",\"first_name\":\"Tobias\",\"last_name\":\"Funke\",\"avatar\":\"https:\/\/reqres.in\/img\/faces\/9-image.jpg\"},{\"id\":10,\"email\":\"byron.fields@reqres.in\",\"first_name\":\"Byron\",\"last_name\":\"Fields\",\"avatar\":\"https:\/\/reqres.in\/img\/faces\/10-image.jpg\"},{\"id\":11,\"email\":\"george.edwards@reqres.in\",\"first_name\":\"George\",\"last_name\":\"Edwards\",\"avatar\":\"https:\/\/reqres.in\/img\/faces\/11-image.jpg\"},{\"id\":12,\"email\":\"rachel.howell@reqres.in\",\"first_name\":\"Rachel\",\"last_name\":\"Howell\",\"avatar\":\"https:\/\/reqres.in\/img\/faces\/12-image.jpg\"}],\"support\":{\"url\":\"https:\/\/reqres.in\/#support-heading\",\"text\":\"To keep ReqRes free, contributions towards server costs are appreciated!\"}}\n\n"},{"result":{"nanos":16894,"millis":0.016894,"status":"passed"},"step":{"line":5,"prefix":"Then","index":2,"text":"status 200"}},{"result":{"nanos":5103465,"millis":5.103465,"status":"passed"},"step":{"line":6,"prefix":"And","index":3,"text":"print response.data[0].email"},"stepLog":"13:42:05.057 [print] michael.lawson@reqres.in \n"},{"result":{"nanos":654904,"millis":0.654904,"status":"passed"},"step":{"line":7,"prefix":"And","index":4,"text":"assert response.data[0].email == \"michael.lawson@reqres.in\""}}],"executorName":"main","line":2,"name":"test API","description":"","durationMillis":360.52656,"startTime":1669795924546,"failed":false,"refId":"[1:2]","endTime":1669795925059,"exampleIndex":-1}],"callDepth":0,"name":"Test API","description":"","resultDate":"2022-11-30 01:42:05 PM","durationMillis":360.52656,"passedCount":1}