{"failedCount":0,"prefixedPath":"src\/test\/java\/Advanced\/ForKarateEnvFIle.feature","packageQualifiedName":"src.test.java.Advanced.ForKarateEnvFIle","loopIndex":-1,"relativePath":"src\/test\/java\/Advanced\/ForKarateEnvFIle.feature","scenarioResults":[{"sectionIndex":1,"stepResults":[{"result":{"nanos":1651936,"millis":1.651936,"status":"passed"},"step":{"line":15,"prefix":"Given","index":0,"text":"url appBaseURL"},"stepLog":"16:49:26.216 Tests will be executed in dev environment \n"},{"result":{"nanos":650447,"millis":0.650447,"status":"passed"},"step":{"line":16,"prefix":"And","index":1,"text":"path \"users\""}},{"result":{"nanos":1546775,"millis":1.546775,"status":"passed"},"step":{"line":17,"prefix":"And","index":2,"text":"param page = \"2\""}},{"result":{"nanos":20569,"millis":0.020569,"status":"passed"},"step":{"line":18,"prefix":"And","index":3,"text":"retry until response.data.length > 2"}},{"result":{"nanos":476514624,"millis":476.514624,"status":"passed"},"step":{"line":19,"prefix":"When","index":4,"text":"method GET"},"stepLog":"16:49:26.486 request:\n1 > GET https:\/\/reqres.in\/api\/users?page=2\n1 > Host: reqres.in\n1 > Connection: Keep-Alive\n1 > User-Agent: Apache-HttpClient\/4.5.13 (Java\/11.0.17)\n1 > Accept-Encoding: gzip,deflate\n\n\n16:49:26.701 response time in milliseconds: 213\n1 < 200\n1 < Date: Wed, 30 Nov 2022 11:19:26 GMT\n1 < Content-Type: application\/json; charset=utf-8\n1 < Transfer-Encoding: chunked\n1 < Connection: keep-alive\n1 < X-Powered-By: Express\n1 < Access-Control-Allow-Origin: *\n1 < Etag: W\/\"406-ut0vzoCuidvyMf8arZpMpJ6ZRDw\"\n1 < Via: 1.1 vegur\n1 < Cache-Control: max-age=14400\n1 < CF-Cache-Status: HIT\n1 < Age: 4454\n1 < Report-To: {\"endpoints\":[{\"url\":\"https:\\\/\\\/a.nel.cloudflare.com\\\/report\\\/v3?s=Oqf0cj9XNnvg%2F%2BYbyYxyVMAb0QYJtzo8KE2X4XBb8s%2BsggugpdOEh8M1XCQwnyjAJMjGBQmw8cG%2BtcQGxAXfQOR%2BNPXnSOKHloLKEK9k6HDAaYZgjr6My4KAow%3D%3D\"}],\"group\":\"cf-nel\",\"max_age\":604800}\n1 < NEL: {\"success_fraction\":0,\"report_to\":\"cf-nel\",\"max_age\":604800}\n1 < Vary: Accept-Encoding\n1 < Server: cloudflare\n1 < CF-RAY: 7723302859f284b9-BOM\n{\"page\":2,\"per_page\":6,\"total\":12,\"total_pages\":2,\"data\":[{\"id\":7,\"email\":\"michael.lawson@reqres.in\",\"first_name\":\"Michael\",\"last_name\":\"Lawson\",\"avatar\":\"https:\/\/reqres.in\/img\/faces\/7-image.jpg\"},{\"id\":8,\"email\":\"lindsay.ferguson@reqres.in\",\"first_name\":\"Lindsay\",\"last_name\":\"Ferguson\",\"avatar\":\"https:\/\/reqres.in\/img\/faces\/8-image.jpg\"},{\"id\":9,\"email\":\"tobias.funke@reqres.in\",\"first_name\":\"Tobias\",\"last_name\":\"Funke\",\"avatar\":\"https:\/\/reqres.in\/img\/faces\/9-image.jpg\"},{\"id\":10,\"email\":\"byron.fields@reqres.in\",\"first_name\":\"Byron\",\"last_name\":\"Fields\",\"avatar\":\"https:\/\/reqres.in\/img\/faces\/10-image.jpg\"},{\"id\":11,\"email\":\"george.edwards@reqres.in\",\"first_name\":\"George\",\"last_name\":\"Edwards\",\"avatar\":\"https:\/\/reqres.in\/img\/faces\/11-image.jpg\"},{\"id\":12,\"email\":\"rachel.howell@reqres.in\",\"first_name\":\"Rachel\",\"last_name\":\"Howell\",\"avatar\":\"https:\/\/reqres.in\/img\/faces\/12-image.jpg\"}],\"support\":{\"url\":\"https:\/\/reqres.in\/#support-heading\",\"text\":\"To keep ReqRes free, contributions towards server costs are appreciated!\"}}\n\n"},{"result":{"nanos":18868,"millis":0.018868,"status":"passed"},"step":{"line":20,"prefix":"Then","index":5,"text":"status 200"}},{"result":{"nanos":2302455,"millis":2.302455,"status":"passed"},"step":{"line":21,"prefix":"And","index":6,"text":"print response.data[0].email"},"stepLog":"16:49:26.750 [print] michael.lawson@reqres.in \n"},{"result":{"nanos":769269,"millis":0.769269,"status":"passed"},"step":{"line":22,"prefix":"And","index":7,"text":"assert response.data[0].email == \"michael.lawson@reqres.in\""}}],"executorName":"main","line":14,"name":"Verify ListUsers api with retry","description":"","durationMillis":483.474943,"startTime":1669807166041,"failed":false,"refId":"[2:14]","endTime":1669807166751,"exampleIndex":-1}],"callDepth":0,"name":"Create new users to the application","description":"","resultDate":"2022-11-30 04:49:26 PM","durationMillis":483.474943,"passedCount":1}