{"failedCount":0,"prefixedPath":"src\/test\/java\/Basics\/listAllUsers.feature","packageQualifiedName":"src.test.java.Basics.listAllUsers","loopIndex":-1,"relativePath":"src\/test\/java\/Basics\/listAllUsers.feature","scenarioResults":[{"sectionIndex":0,"stepResults":[{"result":{"nanos":1466092,"millis":1.466092,"status":"passed"},"step":{"line":4,"prefix":"Given","index":0,"text":"url \"https:\/\/reqres.in\/api\/users\""},"stepLog":"13:38:50.694 Tests will be executed in dev environment \n"},{"result":{"nanos":1164044,"millis":1.164044,"status":"passed"},"step":{"line":5,"prefix":"And","index":1,"text":"param page = \"2\""}},{"result":{"nanos":393104327,"millis":393.104327,"status":"passed"},"step":{"line":6,"prefix":"When","index":2,"text":"method GET"},"stepLog":"13:38:50.909 request:\n1 > GET https:\/\/reqres.in\/api\/users?page=2\n1 > Host: reqres.in\n1 > Connection: Keep-Alive\n1 > User-Agent: Apache-HttpClient\/4.5.13 (Java\/11.0.17)\n1 > Accept-Encoding: gzip,deflate\n\n\n13:38:51.099 response time in milliseconds: 188\n1 < 200\n1 < Date: Wed, 30 Nov 2022 08:08:51 GMT\n1 < Content-Type: application\/json; charset=utf-8\n1 < Transfer-Encoding: chunked\n1 < Connection: keep-alive\n1 < X-Powered-By: Express\n1 < Access-Control-Allow-Origin: *\n1 < Etag: W\/\"406-ut0vzoCuidvyMf8arZpMpJ6ZRDw\"\n1 < Via: 1.1 vegur\n1 < Cache-Control: max-age=14400\n1 < CF-Cache-Status: HIT\n1 < Age: 221\n1 < Report-To: {\"endpoints\":[{\"url\":\"https:\\\/\\\/a.nel.cloudflare.com\\\/report\\\/v3?s=Nq3DI433znJj%2FqpJXsFKwYGye3INVQSIrvDcR17TeHmJ%2BDxCxuJn2%2Be8Zbbn0%2BgpjucnBjylXuxaNUmRUJ%2FoWUWqZyUnWig%2FZ3i4vw4brWeGzgCx66nwewfpcQ%3D%3D\"}],\"group\":\"cf-nel\",\"max_age\":604800}\n1 < NEL: {\"success_fraction\":0,\"report_to\":\"cf-nel\",\"max_age\":604800}\n1 < Vary: Accept-Encoding\n1 < Server: cloudflare\n1 < CF-RAY: 772218f8f8608608-BOM\n{\"page\":2,\"per_page\":6,\"total\":12,\"total_pages\":2,\"data\":[{\"id\":7,\"email\":\"michael.lawson@reqres.in\",\"first_name\":\"Michael\",\"last_name\":\"Lawson\",\"avatar\":\"https:\/\/reqres.in\/img\/faces\/7-image.jpg\"},{\"id\":8,\"email\":\"lindsay.ferguson@reqres.in\",\"first_name\":\"Lindsay\",\"last_name\":\"Ferguson\",\"avatar\":\"https:\/\/reqres.in\/img\/faces\/8-image.jpg\"},{\"id\":9,\"email\":\"tobias.funke@reqres.in\",\"first_name\":\"Tobias\",\"last_name\":\"Funke\",\"avatar\":\"https:\/\/reqres.in\/img\/faces\/9-image.jpg\"},{\"id\":10,\"email\":\"byron.fields@reqres.in\",\"first_name\":\"Byron\",\"last_name\":\"Fields\",\"avatar\":\"https:\/\/reqres.in\/img\/faces\/10-image.jpg\"},{\"id\":11,\"email\":\"george.edwards@reqres.in\",\"first_name\":\"George\",\"last_name\":\"Edwards\",\"avatar\":\"https:\/\/reqres.in\/img\/faces\/11-image.jpg\"},{\"id\":12,\"email\":\"rachel.howell@reqres.in\",\"first_name\":\"Rachel\",\"last_name\":\"Howell\",\"avatar\":\"https:\/\/reqres.in\/img\/faces\/12-image.jpg\"}],\"support\":{\"url\":\"https:\/\/reqres.in\/#support-heading\",\"text\":\"To keep ReqRes free, contributions towards server costs are appreciated!\"}}\n\n"},{"result":{"nanos":17552,"millis":0.017552,"status":"passed"},"step":{"line":7,"prefix":"Then","index":3,"text":"status 200"}},{"result":{"nanos":5782215,"millis":5.782215,"status":"passed"},"step":{"line":8,"prefix":"And","index":4,"text":"print response.data[0].email"},"stepLog":"13:38:51.128 [print] michael.lawson@reqres.in \n"},{"result":{"nanos":703391,"millis":0.703391,"status":"passed"},"step":{"line":9,"prefix":"And","index":5,"text":"assert response.data[0].email == \"michael.lawson@reqres.in\""}}],"executorName":"main","line":3,"name":"Verify whether ListUsers api is able to list all users","description":"","durationMillis":402.237621,"startTime":1669795730550,"failed":false,"refId":"[1:3]","endTime":1669795731129,"exampleIndex":-1}],"callDepth":0,"name":"List users","description":"","resultDate":"2022-11-30 01:38:51 PM","durationMillis":402.237621,"passedCount":1}